[
  {
    "block": "minecraft:smooth_sandstone",
    "x": -1,
    "y": 1,
    "z": -2
  },
  {
    "block": "minecraft:sandstone_slab",
    "x": -2,
    "y": 1,
    "z": -2
  },
  {
    "block": "minecraft:smooth_sandstone",
    "x": 1,
    "y": 1,
    "z": -2
  },
  {
    "block": "minecraft:smooth_sandstone",
    "x": -4,
    "y": -1,
    "z": 1
  },
  {
    "block": "minecraft:smooth_sandstone",
    "x": -3,
    "y": 1,
    "z": 2
  },
  {
    "block": "minecraft:sandstone_slab",
    "x": 0,
    "y": 1,
    "z": -2
  },
  {
    "block": "minecraft:cut_sandstone",
    "x": -4,
    "y": 1,
    "z": 2
  },
  {
    "block": "minecraft:cut_sandstone",
    "x": -4,
    "y": 3,
    "z": -1
  },
  {
    "block": "minecraft:smooth_sandstone",
    "x": -3,
    "y": 1,
    "z": -2
  },
  {
    "block": "minecraft:cut_sandstone",
    "x": -4,
    "y": 1,
    "z": -2
  },
  {
    "block": "minecraft:smooth_sandstone",
    "x": 3,
    "y": 1,
    "z": 2
  },
  {
    "block": "minecraft:sandstone_slab",
    "x": 2,
    "y": 1,
    "z": 2
  },
  {
    "block": "minecraft:smooth_sandstone",
    "x": 4,
    "y": -1,
    "z": 1
  },
  {
    "block": "minecraft:bookshelf",
    "x": 3,
    "y": -1,
    "z": 1
  },
  {
    "block": "minecraft:cut_sandstone",
    "x": 4,
    "y": 1,
    "z": 2
  },
  {
    "block": "minecraft:smooth_sandstone",
    "x": 3,
    "y": 1,
    "z": -2
  },
  {
    "block": "minecraft:cut_sandstone",
    "x": 4,
    "y": 3,
    "z": -1
  },
  {
    "block": "minecraft:smooth_sandstone",
    "x": -1,
    "y": 1,
    "z": 2
  },
  {
    "block": "minecraft:sandstone_slab",
    "x": 2,
    "y": 1,
    "z": -2
  },
  {
    "block": "minecraft:smooth_sandstone_stairs",
    "x": -3,
    "y": -1,
    "z": 1
  },
  {
    "block": "minecraft:sandstone_slab",
    "x": -2,
    "y": 1,
    "z": 2
  },
  {
    "block": "minecraft:smooth_sandstone",
    "x": 1,
    "y": 1,
    "z": 2
  },
  {
    "block": "minecraft:cut_sandstone",
    "x": 4,
    "y": 1,
    "z": -2
  },
  {
    "block": "minecraft:smooth_sandstone",
    "x": 0,
    "y": 1,
    "z": 2
  },
  {
    "block": "minecraft:potted_cactus",
    "x": -2,
    "y": 0,
    "z": -2
  },
  {
    "block": "minecraft:smooth_sandstone",
    "x": -1,
    "y": 2,
    "z": -1
  },
  {
    "block": "minecraft:smooth_sandstone",
    "x": -3,
    "y": 0,
    "z": -2
  },
  {
    "block": "minecraft:smooth_sandstone",
    "x": -2,
    "y": 2,
    "z": -1
  },
  {
    "block": "minecraft:smooth_sandstone",
    "x": 1,
    "y": 2,
    "z": -1
  },
  {
    "block": "minecraft:cut_sandstone",
    "x": -4,
    "y": 0,
    "z": 2
  },
  {
    "block": "minecraft:smooth_sandstone",
    "x": -1,
    "y": 0,
    "z": -2
  },
  {
    "block": "minecraft:smooth_sandstone",
    "x": 0,
    "y": 2,
    "z": -1
  },
  {
    "block": "minecraft:cut_sandstone",
    "x": -4,
    "y": 0,
    "z": -2
  },
  {
    "block": "minecraft:smooth_sandstone",
    "x": -3,
    "y": 2,
    "z": -1
  },
  {
    "block": "minecraft:smooth_sandstone",
    "x": -4,
    "y": 2,
    "z": -1
  },
  {
    "block": "minecraft:potted_cactus",
    "x": 2,
    "y": 0,
    "z": 2
  },
  {
    "block": "minecraft:smooth_sandstone",
    "x": 1,
    "y": 0,
    "z": 2
  },
  {
    "block": "minecraft:cut_sandstone",
    "x": 4,
    "y": 0,
    "z": 2
  },
  {
    "block": "minecraft:smooth_sandstone",
    "x": 3,
    "y": 0,
    "z": 2
  },
  {
    "block": "minecraft:potted_cactus",
    "x": 2,
    "y": 0,
    "z": -2
  },
  {
    "block": "minecraft:smooth_sandstone",
    "x": 3,
    "y": 2,
    "z": -1
  },
  {
    "block": "minecraft:potted_cactus",
    "x": -2,
    "y": 0,
    "z": 2
  },
  {
    "block": "minecraft:smooth_sandstone",
    "x": 1,
    "y": 0,
    "z": -2
  },
  {
    "block": "minecraft:smooth_sandstone",
    "x": 2,
    "y": 2,
    "z": -1
  },
  {
    "block": "minecraft:smooth_sandstone",
    "x": -3,
    "y": 0,
    "z": 2
  },
  {
    "block": "minecraft:cut_sandstone",
    "x": 4,
    "y": 0,
    "z": -2
  },
  {
    "block": "minecraft:smooth_sandstone",
    "x": 0,
    "y": 0,
    "z": 2
  },
  {
    "block": "minecraft:smooth_sandstone",
    "x": 3,
    "y": 0,
    "z": -2
  },
  {
    "block": "minecraft:smooth_sandstone",
    "x": 4,
    "y": 2,
    "z": -1
  },
  {
    "block": "minecraft:smooth_sandstone",
    "x": -1,
    "y": 0,
    "z": 2
  },
  {
    "block": "minecraft:cut_sandstone",
    "x": -4,
    "y": 4,
    "z": -2
  },
  {
    "block": "minecraft:cut_sandstone",
    "x": 1,
    "y": 3,
    "z": -2
  },
  {
    "block": "minecraft:smooth_sandstone",
    "x": -4,
    "y": 1,
    "z": 1
  },
  {
    "block": "minecraft:cut_sandstone",
    "x": -3,
    "y": 3,
    "z": 2
  },
  {
    "block": "minecraft:cut_sandstone",
    "x": 0,
    "y": 3,
    "z": -2
  },
  {
    "block": "minecraft:cut_sandstone",
    "x": -4,
    "y": 3,
    "z": 2
  },
  {
    "block": "minecraft:cut_sandstone",
    "x": 3,
    "y": 3,
    "z": -2
  },
  {
    "block": "minecraft:lectern",
    "x": -3,
    "y": -1,
    "z": 0
  },
  {
    "block": "minecraft:cut_sandstone",
    "x": -1,
    "y": 3,
    "z": 2
  },
  {
    "block": "minecraft:cut_sandstone",
    "x": 2,
    "y": 3,
    "z": -2
  },
  {
    "block": "minecraft:smooth_sandstone",
    "x": -4,
    "y": -1,
    "z": 0
  },
  {
    "block": "minecraft:cut_sandstone",
    "x": -2,
    "y": 3,
    "z": 2
  },
  {
    "block": "minecraft:cut_sandstone",
    "x": -3,
    "y": 3,
    "z": -2
  },
  {
    "block": "minecraft:cut_sandstone",
    "x": -4,
    "y": 3,
    "z": -2
  },
  {
    "block": "minecraft:cut_sandstone",
    "x": -1,
    "y": 3,
    "z": -2
  },
  {
    "block": "minecraft:cut_sandstone",
    "x": -2,
    "y": 3,
    "z": -2
  },
  {
    "block": "minecraft:bookshelf",
    "x": 3,
    "y": -1,
    "z": 0
  },
  {
    "block": "minecraft:smooth_sandstone",
    "x": 4,
    "y": 1,
    "z": 1
  },
  {
    "block": "minecraft:bookshelf",
    "x": 3,
    "y": 1,
    "z": 1
  },
  {
    "block": "minecraft:cut_sandstone",
    "x": 4,
    "y": 3,
    "z": 2
  },
  {
    "block": "minecraft:smooth_sandstone",
    "x": 4,
    "y": -1,
    "z": 0
  },
  {
    "block": "minecraft:cut_sandstone",
    "x": 1,
    "y": 3,
    "z": 2
  },
  {
    "block": "minecraft:cut_sandstone",
    "x": 4,
    "y": 3,
    "z": -2
  },
  {
    "block": "minecraft:cut_sandstone",
    "x": 0,
    "y": 3,
    "z": 2
  },
  {
    "block": "minecraft:cut_sandstone",
    "x": 3,
    "y": 3,
    "z": 2
  },
  {
    "block": "minecraft:cut_sandstone",
    "x": 2,
    "y": 3,
    "z": 2
  },
  {
    "block": "minecraft:smooth_sandstone",
    "x": 0,
    "y": 2,
    "z": -2
  },
  {
    "block": "minecraft:cut_sandstone",
    "x": -4,
    "y": 2,
    "z": 2
  },
  {
    "block": "minecraft:smooth_sandstone",
    "x": -1,
    "y": 2,
    "z": -2
  },
  {
    "block": "minecraft:smooth_sandstone",
    "x": 2,
    "y": 2,
    "z": -2
  },
  {
    "block": "minecraft:smooth_sandstone",
    "x": -2,
    "y": 2,
    "z": 2
  },
  {
    "block": "minecraft:smooth_sandstone",
    "x": 1,
    "y": 2,
    "z": -2
  },
  {
    "block": "minecraft:smooth_sandstone",
    "x": -4,
    "y": 0,
    "z": 1
  },
  {
    "block": "minecraft:smooth_sandstone",
    "x": -3,
    "y": 2,
    "z": 2
  },
  {
    "block": "minecraft:cut_sandstone",
    "x": -4,
    "y": 2,
    "z": -2
  },
  {
    "block": "minecraft:smooth_sandstone",
    "x": -2,
    "y": 2,
    "z": -2
  },
  {
    "block": "minecraft:smooth_sandstone",
    "x": -3,
    "y": 2,
    "z": -2
  },
  {
    "block": "minecraft:bookshelf",
    "x": 3,
    "y": 0,
    "z": 1
  },
  {
    "block": "minecraft:cut_sandstone",
    "x": 4,
    "y": 2,
    "z": 2
  },
  {
    "block": "minecraft:smooth_sandstone",
    "x": 3,
    "y": 2,
    "z": 2
  },
  {
    "block": "minecraft:smooth_sandstone",
    "x": 4,
    "y": 0,
    "z": 1
  },
  {
    "block": "minecraft:cut_sandstone",
    "x": 4,
    "y": 2,
    "z": -2
  },
  {
    "block": "minecraft:smooth_sandstone",
    "x": 0,
    "y": 2,
    "z": 2
  },
  {
    "block": "minecraft:smooth_sandstone",
    "x": 3,
    "y": 2,
    "z": -2
  },
  {
    "block": "minecraft:smooth_sandstone",
    "x": -1,
    "y": 2,
    "z": 2
  },
  {
    "block": "minecraft:smooth_sandstone",
    "x": 2,
    "y": 2,
    "z": 2
  },
  {
    "block": "minecraft:wall_torch",
    "x": 0,
    "y": 0,
    "z": 1
  },
  {
    "block": "minecraft:smooth_sandstone",
    "x": 1,
    "y": 2,
    "z": 2
  },
  {
    "block": "minecraft:smooth_sandstone",
    "x": -4,
    "y": -1,
    "z": -1
  },
  {
    "block": "minecraft:smooth_sandstone",
    "x": -4,
    "y": 1,
    "z": 0
  },
  {
    "block": "minecraft:smooth_sandstone_stairs",
    "x": -3,
    "y": -1,
    "z": -1
  },
  {
    "block": "minecraft:cut_sandstone",
    "x": -4,
    "y": 3,
    "z": 1
  },
  {
    "block": "minecraft:smooth_sandstone",
    "x": 4,
    "y": -1,
    "z": -1
  },
  {
    "block": "minecraft:bookshelf",
    "x": 3,
    "y": -1,
    "z": -1
  },
  {
    "block": "minecraft:smooth_sandstone",
    "x": 4,
    "y": 1,
    "z": 0
  },
  {
    "block": "minecraft:bookshelf",
    "x": 3,
    "y": 1,
    "z": 0
  },
  {
    "block": "minecraft:cut_sandstone",
    "x": 4,
    "y": 3,
    "z": 1
  },
  {
    "block": "minecraft:smooth_sandstone",
    "x": -4,
    "y": 0,
    "z": 0
  },
  {
    "block": "minecraft:smooth_sandstone",
    "x": -3,
    "y": 2,
    "z": 1
  },
  {
    "block": "minecraft:smooth_sandstone",
    "x": -4,
    "y": 2,
    "z": 1
  },
  {
    "block": "minecraft:cut_sandstone",
    "x": 4,
    "y": 4,
    "z": -2
  },
  {
    "block": "minecraft:smooth_sandstone",
    "x": -1,
    "y": 2,
    "z": 1
  },
  {
    "block": "minecraft:wall_torch",
    "x": -3,
    "y": 0,
    "z": 0
  },
  {
    "block": "minecraft:smooth_sandstone",
    "x": -2,
    "y": 2,
    "z": 1
  },
  {
    "block": "minecraft:cut_sandstone",
    "x": -4,
    "y": 4,
    "z": 2
  },
  {
    "block": "minecraft:smooth_sandstone",
    "x": 4,
    "y": 0,
    "z": 0
  },
  {
    "block": "minecraft:bookshelf",
    "x": 3,
    "y": 0,
    "z": 0
  },
  {
    "block": "minecraft:smooth_sandstone",
    "x": 4,
    "y": 2,
    "z": 1
  },
  {
    "block": "minecraft:smooth_sandstone",
    "x": 1,
    "y": 2,
    "z": 1
  },
  {
    "block": "minecraft:smooth_sandstone",
    "x": 0,
    "y": 2,
    "z": 1
  },
  {
    "block": "minecraft:smooth_sandstone",
    "x": 3,
    "y": 2,
    "z": 1
  },
  {
    "block": "minecraft:cut_sandstone",
    "x": 4,
    "y": 4,
    "z": 2
  },
  {
    "block": "minecraft:smooth_sandstone",
    "x": 2,
    "y": 2,
    "z": 1
  },
  {
    "block": "minecraft:cut_sandstone",
    "x": 4,
    "y": -1,
    "z": 2
  },
  {
    "block": "minecraft:smooth_sandstone",
    "x": -3,
    "y": -1,
    "z": -2
  },
  {
    "block": "minecraft:cut_sandstone",
    "x": -4,
    "y": -1,
    "z": -2
  },
  {
    "block": "minecraft:smooth_sandstone",
    "x": -1,
    "y": -1,
    "z": -2
  },
  {
    "block": "minecraft:smooth_sandstone",
    "x": -2,
    "y": -1,
    "z": -2
  },
  {
    "block": "minecraft:smooth_sandstone",
    "x": -4,
    "y": 1,
    "z": -1
  },
  {
    "block": "minecraft:cut_sandstone",
    "x": -4,
    "y": 3,
    "z": 0
  },
  {
    "block": "minecraft:smooth_sandstone",
    "x": 1,
    "y": -1,
    "z": 2
  },
  {
    "block": "minecraft:cut_sandstone",
    "x": 4,
    "y": -1,
    "z": -2
  },
  {
    "block": "minecraft:smooth_sandstone",
    "x": 0,
    "y": -1,
    "z": 2
  },
  {
    "block": "minecraft:smooth_sandstone",
    "x": 3,
    "y": -1,
    "z": 2
  },
  {
    "block": "minecraft:smooth_sandstone",
    "x": 2,
    "y": -1,
    "z": 2
  },
  {
    "block": "minecraft:smooth_sandstone",
    "x": 1,
    "y": -1,
    "z": -2
  },
  {
    "block": "minecraft:smooth_sandstone",
    "x": -3,
    "y": -1,
    "z": 2
  },
  {
    "block": "minecraft:cut_sandstone",
    "x": -4,
    "y": -1,
    "z": 2
  },
  {
    "block": "minecraft:smooth_sandstone",
    "x": 3,
    "y": -1,
    "z": -2
  },
  {
    "block": "minecraft:smooth_sandstone",
    "x": 4,
    "y": 1,
    "z": -1
  },
  {
    "block": "minecraft:smooth_sandstone",
    "x": -1,
    "y": -1,
    "z": 2
  },
  {
    "block": "minecraft:smooth_sandstone",
    "x": 2,
    "y": -1,
    "z": -2
  },
  {
    "block": "minecraft:bookshelf",
    "x": 3,
    "y": 1,
    "z": -1
  },
  {
    "block": "minecraft:cut_sandstone",
    "x": 4,
    "y": 3,
    "z": 0
  },
  {
    "block": "minecraft:smooth_sandstone",
    "x": -2,
    "y": -1,
    "z": 2
  },
  {
    "block": "minecraft:smooth_sandstone",
    "x": -2,
    "y": 2,
    "z": 0
  },
  {
    "block": "minecraft:smooth_sandstone",
    "x": -4,
    "y": 0,
    "z": -1
  },
  {
    "block": "minecraft:smooth_sandstone",
    "x": -3,
    "y": 2,
    "z": 0
  },
  {
    "block": "minecraft:smooth_sandstone",
    "x": 0,
    "y": 2,
    "z": 0
  },
  {
    "block": "minecraft:smooth_sandstone",
    "x": -1,
    "y": 2,
    "z": 0
  },
  {
    "block": "minecraft:smooth_sandstone",
    "x": -4,
    "y": 2,
    "z": 0
  },
  {
    "block": "minecraft:smooth_sandstone",
    "x": 4,
    "y": 0,
    "z": -1
  },
  {
    "block": "minecraft:smooth_sandstone",
    "x": 2,
    "y": 2,
    "z": 0
  },
  {
    "block": "minecraft:smooth_sandstone",
    "x": 1,
    "y": 2,
    "z": 0
  },
  {
    "block": "minecraft:bookshelf",
    "x": 3,
    "y": 0,
    "z": -1
  },
  {
    "block": "minecraft:smooth_sandstone",
    "x": 4,
    "y": 2,
    "z": 0
  },
  {
    "block": "minecraft:smooth_sandstone",
    "x": 3,
    "y": 2,
    "z": 0
  }
]