{
    "variants": {
      "type=bottom": { "model": "tardis:block/tech_wall_dark_blank_slab" },
      "type=top": { "model": "tardis:block/tech_wall_dark_blank_slab_top" },
      "type=double": { "model": "tardis:block/tech_wall_dark_blank" }
    }
}