{
	"credit": "Made with Blockbench",
	"textures": {
		"side": "tardis:blocks/technology/airlock_bottom",
		"side_top": "tardis:blocks/technology/airlock_top",
		"top": "tardis:blocks/technology/tech_floor_plate",
		"particle": "tardis:blocks/technology/tech_floor_plate"
	},
	"elements": [
		{
			"from": [0, 0, 0],
			"to": [16, 16, 16],
			"faces": {
				"north": {"uv": [0, 0, 16, 16], "texture": "#side"},
				"east": {"uv": [0, 0, 16, 16], "texture": "#side"},
				"south": {"uv": [0, 0, 16, 16], "texture": "#side"},
				"west": {"uv": [0, 0, 16, 16], "texture": "#side"},
				"up": {"uv": [0, 0, 16, 16], "texture": "#top"},
				"down": {"uv": [0, 0, 16, 16], "texture": "#top"}
			}
		},
		{
			"from": [0, 16, 0],
			"to": [16, 32, 16],
			"faces": {
				"north": {"uv": [0, 0, 16, 16], "texture": "#side_top"},
				"east": {"uv": [0, 0, 16, 16], "texture": "#side_top"},
				"south": {"uv": [0, 0, 16, 16], "texture": "#side_top"},
				"west": {"uv": [0, 0, 16, 16], "texture": "#side_top"},
				"up": {"uv": [0, 0, 16, 16], "texture": "#top"},
				"down": {"uv": [0, 0, 16, 16], "texture": "#top"}
			}
		}
	],
	"display": {
		"thirdperson_righthand": {
			"rotation": [0, 45, 0],
			"scale": [0.125, 0.125, 0.125]
		},
		"thirdperson_lefthand": {
			"rotation": [0, 45, 0],
			"scale": [0.125, 0.125, 0.125]
		},
		"firstperson_righthand": {
			"scale": [0.25, 0.25, 0.25]
		},
		"firstperson_lefthand": {
			"scale": [0.25, 0.25, 0.25]
		},
		"ground": {
			"scale": [0.25, 0.25, 0.25]
		},
		"gui": {
			"rotation": [30, 45, 0],
			"translation": [0.5, -3, 0],
			"scale": [0.375, 0.375, 0.375]
		},
		"head": {
			"scale": [0.75, 0.75, 0.75]
		},
		"fixed": {
			"translation": [0, -3, 0],
			"scale": [0.375, 0.375, 0.375]
		}
	}
}