{
	"type":"minecraft:crafting_shaped",
	"pattern":[
		"NSN",
		"IRI",
		"OCO"
	],
	"key":{
		"N":{
			"item":"minecraft:iron_nugget"
		},
		"S":{
			"item":"minecraft:daylight_detector"
		},
		"I":{
			"item":"minecraft:iron_ingot"
		},
		"R":{
			"item":"minecraft:redstone"
		},
		"O":{
			"item":"minecraft:obsidian"
		},
		"C":{
			"item":"tardis:circuits"
		}
	},
	"result":{
		"item":"tardis:landing_pad"
	}
}