{
	"repair":false,
	"ingredients":[
		"tardis:circuits",
		"minecraft:diamond",
		"tardis:artron_capacitor_mid",
		"tardis:circuits",
		"tardis:mercury_bottle"
	],
	"result":{
		"item":"tardis:artron_capacitor_high"
	}
}