{
	"repair":"false",
	"ingredients":[
		"tardis:xion_crystal",
		"tardis:circuits",
		"minecraft:red_dye",
		"minecraft:green_dye",
		"minecraft:blue_dye"
	],
	"result":{
		"item":"tardis:chameleon_circuit"
	}
}