{
	"repair":"false",
	"ingredients":[
		"minecraft:iron_nugget",
		"minecraft:iron_nugget",
		"tardis:circuits",
		"minecraft:iron_nugget",
		"minecraft:iron_nugget"
	],
	"result":{
		"item":"tardis:sonic_handle"
	}
}