{
	"lines":[
	"Interstitial Antenna"
	,""
	," Allows your time-ship's Communicator Control to pick up distress calls from ships that may have crashed."
	," Repair it with Redstone Dust and Exotronic Circuit in a Quantiscope."
	]
}