{
  "replace": false,
  "values": [
    "tardis:roundel_alabaster",
    "tardis:roundel_offset_alabaster",
    "tardis:alabaster",
    "tardis:alabaster_stairs",
    "tardis:alabaster_slab",
    "tardis:alabaster_bookshelf",
    "tardis:ebony_bookshelf",
    "tardis:roundel_wood_oak",
    "tardis:roundel_offset_wood_oak",
    "tardis:roundel_wood_spruce",
    "tardis:roundel_offset_wood_spruce",
    "tardis:roundel_wood_birch",
    "tardis:roundel_offset_wood_birch",
    "tardis:roundel_wood_jungle",
    "tardis:roundel_offset_wood_jungle",
    "tardis:roundel_wood_acacia",
    "tardis:roundel_offset_wood_acacia",
    "tardis:roundel_wood_dark_oak",
    "tardis:roundel_offset_wood_dark_oak",
    "tardis:roundel_concrete_white",
    "tardis:roundel_offset_concrete_white",
    "tardis:roundel_concrete_orange",
    "tardis:roundel_offset_concrete_orange",
    "tardis:roundel_concrete_magenta",
    "tardis:roundel_offset_concrete_magenta",
    "tardis:roundel_concrete_light_blue",
    "tardis:roundel_offset_concrete_light_blue",
    "tardis:roundel_concrete_yellow",
    "tardis:roundel_offset_concrete_yellow",
    "tardis:roundel_concrete_lime",
    "tardis:roundel_offset_concrete_lime",
    "tardis:roundel_concrete_pink",
    "tardis:roundel_offset_concrete_pink",
    "tardis:roundel_concrete_gray",
    "tardis:roundel_offset_concrete_gray",
    "tardis:roundel_concrete_light_gray",
    "tardis:roundel_offset_concrete_light_gray",
    "tardis:roundel_concrete_cyan",
    "tardis:roundel_offset_concrete_cyan",
    "tardis:roundel_concrete_purple",
    "tardis:roundel_offset_concrete_purple",
    "tardis:roundel_concrete_blue",
    "tardis:roundel_offset_concrete_blue",
    "tardis:roundel_concrete_brown",
    "tardis:roundel_offset_concrete_brown",
    "tardis:roundel_concrete_green",
    "tardis:roundel_offset_concrete_green",
    "tardis:roundel_concrete_red",
    "tardis:roundel_offset_concrete_red",
    "tardis:roundel_concrete_black",
    "tardis:roundel_offset_concrete_black",
    "tardis:roundel_terracotta_white",
    "tardis:roundel_offset_terracotta_white",
    "tardis:roundel_terracotta_orange",
    "tardis:roundel_offset_terracotta_orange",
    "tardis:roundel_terracotta_magenta",
    "tardis:roundel_offset_terracotta_magenta",
    "tardis:roundel_terracotta_light_blue",
    "tardis:roundel_offset_terracotta_light_blue",
    "tardis:roundel_terracotta_yellow",
    "tardis:roundel_offset_terracotta_yellow",
    "tardis:roundel_terracotta_lime",
    "tardis:roundel_offset_terracotta_lime",
    "tardis:roundel_terracotta_pink",
    "tardis:roundel_offset_terracotta_pink",
    "tardis:roundel_terracotta_gray",
    "tardis:roundel_offset_terracotta_gray",
    "tardis:roundel_terracotta_light_gray",
    "tardis:roundel_offset_terracotta_light_gray",
    "tardis:roundel_terracotta_cyan",
    "tardis:roundel_offset_terracotta_cyan",
    "tardis:roundel_terracotta_purple",
    "tardis:roundel_offset_terracotta_purple",
    "tardis:roundel_terracotta_blue",
    "tardis:roundel_offset_terracotta_blue",
    "tardis:roundel_terracotta_brown",
    "tardis:roundel_offset_terracotta_brown",
    "tardis:roundel_terracotta_green",
    "tardis:roundel_offset_terracotta_green",
    "tardis:roundel_terracotta_red",
    "tardis:roundel_offset_terracotta_red",
    "tardis:roundel_terracotta_black",
    "tardis:roundel_offset_terracotta_black",
    "tardis:roundel_quartz",
    "tardis:roundel_quartz_pillar",
    "tardis:roundel_chiselled_quartz",
    "tardis:roundel_coralised",
    "tardis:roundel_divider",
    "tardis:roundel_coralised_large",
    "tardis:roundel_coralised_small",
    "tardis:roundel_tech_wall_lamp",
    "tardis:roundel_tech_wall_lamp_offset",
    "tardis:tech_strut",
    "tardis:tech_floor_plate_slab",
    "tardis:tech_floor_dark_pipes_slab",
    "tardis:tech_floor_dark_pattern_slab",
    "tardis:tech_wall_dark_blank_slab",
    "tardis:tech_floor_plate_stairs",
    "tardis:tech_floor_dark_pipes_stairs",
    "tardis:tech_floor_dark_pattern_stairs",
    "tardis:tech_wall_dark_blank_stairs",
    "tardis:holo_ladders",
    "tardis:metal_grate_slab",
    "tardis:metal_grate_stairs",
    "tardis:metal_grate_trapdoor",
    "tardis:steel_grate_frame",
    "tardis:steel_grate_frame_offset",
    "tardis:blue_concrete_slab",
    "tardis:gallifreyan_yellow_slab",
    "tardis:yellow_crystal",
    "tardis:yellow_crystal_slab",
    "tardis:yellow_crystal_stairs",
    "tardis:blue_pillar",
    "tardis:foam_pipes",
    "tardis:three_point_lamp",
    "tardis:tardis_engine",
    "tardis:anti_grav",
    "tardis:corridor_spawn",
    "tardis:eye_monitor",
    "tardis:rca_monitor",
    "tardis:rotate_monitor",
    "tardis:tech_floor_dark_pattern",
    "tardis:tech_floor_dark_pipes",
    "tardis:tech_floor_dark_plate",
    "tardis:tech_floor_plate",
    "tardis:tech_wall_dark_runner_lights",
    "tardis:tech_wall_dark_blank",
    "tardis:wire_hang",
    "tardis:comfy_chair",
    "tardis:comfy_chair_green",
    "tardis:crash_chair",
    "tardis:crash_chair_wood",
    "tardis:crash_chair_red",
    "tardis:blinking_lights",
    "tardis:spinny_thing",
    "tardis:plaque",
    "tardis:chemlight",
    "tardis:chemlamp"
  ]
}