{
	"lines":[
	"Flight Modes (cont.)"
		,""
		," Stabilised Flight is another flight mode. It doesn't require any additional pilot input during flight."
		,"It will automatically take off and land."
	]
}